{
  "Records": [
    {
      "eventVersion": "2.0",
      "eventSource": "aws:s3",
      "awsRegion": "us-west-2",
      "eventTime": "2017-11-29T03:37:58.422Z",
      "eventName": "ObjectRemoved:Delete",
      "userIdentity": {
        "principalId": "AWS:ABCDEFGHIJKLMNOPQRSTU"
      },
      "requestParameters": {
        "sourceIPAddress": "198.51.100.73"
      },
      "responseElements": {
        "x-amz-request-id": "E75D30E6EB5E6008",
        "x-amz-id-2": "vit3jQvSdKVnYVsCyKEfTxsG4oqwDM/kHttTJUJwfpZjnuBqICZA/3m4zNmj4xY3oYgVVgalM9g="
      },
      "s3": {
        "s3SchemaVersion": "1.0",
        "configurationId": "702806e8-2bff-4e8e-96e6-38204e166990",
        "bucket": {
          "name": "vpcm-vpcmconfig-8x21zoqq80fh",
          "ownerIdentity": {
            "principalId": "ABCDEFGHIJKLM"
          },
          "arn": "arn:aws:s3:::vpcm-vpcmconfig-8x21zoqq80fh"
        },
        "object": {
          "key": "nodes/us_west_2",
          "sequencer": "005A1E2B9664428B17"
        }
      }
    }
  ]
}
